CA_practical3_400104867/simulation/qsim/HW3.msim.vcd
$comment
	File created using the following command:
		vcd file HW3.msim.vcd -direction
$end
$date
	Sun May 21 11:57:04 2023
$end
$version
	ModelSim Version 10.1d
$end
$timescale
	1ps
$end
$scope module FinalCircuit_vlg_vec_tst $end
$var reg 1 ! CLK $end
$var reg 8 " INPUT1 [7:0] $end
$var reg 8 # INPUT2 [7:0] $end
$var reg 1 $ S $end
$var reg 1 % START $end
$var wire 1 & OUTPUT [7] $end
$var wire 1 ' OUTPUT [6] $end
$var wire 1 ( OUTPUT [5] $end
$var wire 1 ) OUTPUT [4] $end
$var wire 1 * OUTPUT [3] $end
$var wire 1 + OUTPUT [2] $end
$var wire 1 , OUTPUT [1] $end
$var wire 1 - OUTPUT [0] $end
$var wire 1 . READY $end
$var wire 1 / sampler $end
$scope module i1 $end
$var wire 1 0 gnd $end
$var wire 1 1 vcc $end
$var wire 1 2 unknown $end
$var tri1 1 3 devclrn $end
$var tri1 1 4 devpor $end
$var tri1 1 5 devoe $end
$var wire 1 6 READY~output_o $end
$var wire 1 7 OUTPUT[7]~output_o $end
$var wire 1 8 OUTPUT[6]~output_o $end
$var wire 1 9 OUTPUT[5]~output_o $end
$var wire 1 : OUTPUT[4]~output_o $end
$var wire 1 ; OUTPUT[3]~output_o $end
$var wire 1 < OUTPUT[2]~output_o $end
$var wire 1 = OUTPUT[1]~output_o $end
$var wire 1 > OUTPUT[0]~output_o $end
$var wire 1 ? CLK~input_o $end
$var wire 1 @ CLK~inputclkctrl_outclk $end
$var wire 1 A S~input_o $end
$var wire 1 B inst|inst23~combout $end
$var wire 1 C INPUT2[0]~input_o $end
$var wire 1 D inst|inst30~combout $end
$var wire 1 E inst1|inst7|inst18~q $end
$var wire 1 F INPUT1[2]~input_o $end
$var wire 1 G inst1|inst8|inst20~q $end
$var wire 1 H inst1|inst4|inst11~combout $end
$var wire 1 I INPUT1[0]~input_o $end
$var wire 1 J inst1|inst8|inst18~q $end
$var wire 1 K INPUT2[1]~input_o $end
$var wire 1 L inst1|inst7|inst19~q $end
$var wire 1 M INPUT1[1]~input_o $end
$var wire 1 N inst1|inst8|inst19~q $end
$var wire 1 O inst1|inst4|inst8~combout $end
$var wire 1 P INPUT2[2]~input_o $end
$var wire 1 Q inst1|inst7|inst20~q $end
$var wire 1 R inst1|inst4|inst26|inst2|inst5~4_combout $end
$var wire 1 S inst1|inst4|inst26|inst2|inst5~5_combout $end
$var wire 1 T inst1|inst4|inst4~combout $end
$var wire 1 U inst1|inst5|inst|6~0_combout $end
$var wire 1 V inst1|inst5|inst26~q $end
$var wire 1 W inst1|inst5|inst2|5~0_combout $end
$var wire 1 X inst1|inst5|inst27~q $end
$var wire 1 Y inst1|inst5|inst3|5~0_combout $end
$var wire 1 Z inst1|inst5|inst28~q $end
$var wire 1 [ inst1|inst4|inst12~combout $end
$var wire 1 \ inst1|inst4|inst26|inst2|inst7~0_combout $end
$var wire 1 ] inst1|inst4|inst26|inst2|inst7~1_combout $end
$var wire 1 ^ inst1|inst4|inst26|inst3|inst5~0_combout $end
$var wire 1 _ inst1|inst4|inst31|inst2|inst5~combout $end
$var wire 1 ` inst1|inst5|inst4|5~0_combout $end
$var wire 1 a inst1|inst5|inst29~q $end
$var wire 1 b inst1|inst4|inst13~combout $end
$var wire 1 c inst1|inst4|inst26|inst3|inst7~0_combout $end
$var wire 1 d inst1|inst4|inst31|inst2|inst7~0_combout $end
$var wire 1 e inst1|inst4|inst31|inst3|inst5~combout $end
$var wire 1 f inst1|inst4|inst36|inst2|inst5~combout $end
$var wire 1 g inst1|inst5|inst5|5~2_combout $end
$var wire 1 h inst1|inst5|inst30~q $end
$var wire 1 i inst1|inst4|inst31|inst3|inst7~0_combout $end
$var wire 1 j inst1|inst4|inst31|inst4|inst4~combout $end
$var wire 1 k inst1|inst4|inst36|inst2|inst7~0_combout $end
$var wire 1 l inst1|inst4|inst36|inst3|inst5~combout $end
$var wire 1 m inst1|inst5|inst6|5~2_combout $end
$var wire 1 n inst1|inst5|inst31~q $end
$var wire 1 o inst1|inst4|inst31|inst4|inst7~0_combout $end
$var wire 1 p inst1|inst4|inst36|inst3|inst7~0_combout $end
$var wire 1 q inst1|inst5|inst7|5~0_combout $end
$var wire 1 r inst1|inst5|inst32~q $end
$var wire 1 s inst|DFF2~0_combout $end
$var wire 1 t START~input_o $end
$var wire 1 u START~inputclkctrl_outclk $end
$var wire 1 v inst|DFF2~q $end
$var wire 1 w INPUT1[6]~input_o $end
$var wire 1 x inst1|inst8|inst24~q $end
$var wire 1 y INPUT1[3]~input_o $end
$var wire 1 z inst1|inst8|inst21~q $end
$var wire 1 { INPUT1[5]~input_o $end
$var wire 1 | inst1|inst8|inst23~q $end
$var wire 1 } inst1|inst8|or8~1_combout $end
$var wire 1 ~ INPUT1[4]~input_o $end
$var wire 1 !! inst1|inst8|inst22~feeder_combout $end
$var wire 1 "! inst1|inst8|inst22~q $end
$var wire 1 #! inst1|inst8|or8~0_combout $end
$var wire 1 $! INPUT2[4]~input_o $end
$var wire 1 %! inst1|inst7|inst22~q $end
$var wire 1 &! inst1|inst7|or8~0_combout $end
$var wire 1 '! INPUT2[5]~input_o $end
$var wire 1 (! inst1|inst7|inst23~q $end
$var wire 1 )! INPUT2[6]~input_o $end
$var wire 1 *! inst1|inst7|inst24~feeder_combout $end
$var wire 1 +! inst1|inst7|inst24~q $end
$var wire 1 ,! INPUT2[3]~input_o $end
$var wire 1 -! inst1|inst7|inst21~q $end
$var wire 1 .! inst1|inst7|or8~1_combout $end
$var wire 1 /! inst1|inst1~combout $end
$var wire 1 0! inst1|inst5|inst33~0_combout $end
$var wire 1 1! inst1|inst5|inst33~1_combout $end
$var wire 1 2! inst1|inst5|inst33~2_combout $end
$var wire 1 3! inst1|inst5|inst33~q $end
$var wire 1 4! inst1|inst5|inst1~combout $end
$var wire 1 5! inst|DFF3~q $end
$var wire 1 6! inst|inst10~0_combout $end
$var wire 1 7! inst|inst10~combout $end
$var wire 1 8! inst|DFF1~q $end
$var wire 1 9! inst1|inst12~0_combout $end
$var wire 1 :! inst1|inst12~q $end
$var wire 1 ;! INPUT1[7]~input_o $end
$var wire 1 <! inst1|inst8|inst25~feeder_combout $end
$var wire 1 =! inst1|inst8|inst25~q $end
$var wire 1 >! INPUT2[7]~input_o $end
$var wire 1 ?! inst1|inst7|inst25~feeder_combout $end
$var wire 1 @! inst1|inst7|inst25~q $end
$var wire 1 A! inst1|inst~combout $end
$var wire 1 B! inst|inst29~combout $end
$var wire 1 C! inst1|inst2|inst29~q $end
$var wire 1 D! inst1|inst11|inst7|inst|5~0_combout $end
$var wire 1 E! inst1|inst11|inst|inst18~q $end
$var wire 1 F! inst1|inst3|inst|inst20~combout $end
$var wire 1 G! inst1|inst11|inst7|inst1|5~0_combout $end
$var wire 1 H! inst1|inst11|inst|inst19~q $end
$var wire 1 I! inst1|inst11|inst1|inst21~combout $end
$var wire 1 J! inst1|inst3|inst|inst10~0_combout $end
$var wire 1 K! inst1|inst3|inst2|inst21~combout $end
$var wire 1 L! inst1|inst11|inst7|inst2|5~2_combout $end
$var wire 1 M! inst1|inst11|inst|inst20~q $end
$var wire 1 N! inst1|inst11|inst7|inst3|5~2_combout $end
$var wire 1 O! inst1|inst11|inst7|inst3|5~3_combout $end
$var wire 1 P! inst1|inst11|inst7|inst3|5~4_combout $end
$var wire 1 Q! inst1|inst11|inst7|inst3|5~5_combout $end
$var wire 1 R! inst1|inst11|inst7|inst3|5~6_combout $end
$var wire 1 S! inst1|inst11|inst7|inst3|5~7_combout $end
$var wire 1 T! inst1|inst11|inst|inst21~q $end
$var wire 1 U! inst1|inst2|inst28~q $end
$var wire 1 V! inst1|inst2|inst27~feeder_combout $end
$var wire 1 W! inst1|inst2|inst27~q $end
$var wire 1 X! inst1|inst2|inst26~feeder_combout $end
$var wire 1 Y! inst1|inst2|inst26~q $end
$var wire 1 Z! inst1|inst2|inst30~feeder_combout $end
$var wire 1 [! inst1|inst2|inst30~q $end
$var wire 1 \! inst1|inst2|inst31~feeder_combout $end
$var wire 1 ]! inst1|inst2|inst31~q $end
$var wire 1 ^! inst1|inst2|inst32~feeder_combout $end
$var wire 1 _! inst1|inst2|inst32~q $end
$var wire 1 `! inst1|inst2|inst18~feeder_combout $end
$var wire 1 a! inst1|inst2|inst18~q $end
$upscope $end
$upscope $end
$enddefinitions $end
#0
$dumpvars
1!
b1111 "
b11000001 #
0$
1%
0-
0,
0+
0*
0)
0(
0'
0&
0.
x/
00
11
x2
13
14
15
06
07
08
09
0:
0;
0<
0=
0>
1?
1@
0A
0B
1C
1D
0E
1F
0G
0H
1I
0J
0K
0L
1M
0N
0O
0P
0Q
0R
0S
0T
0U
0V
0W
0X
0Y
0Z
0[
0\
0]
0^
0_
0`
0a
0b
0c
0d
0e
0f
0g
0h
0i
0j
0k
0l
0m
0n
0o
0p
1q
0r
0s
1t
1u
0v
0w
0x
1y
0z
0{
0|
1}
0~
0!!
0"!
1#!
0$!
0%!
1&!
0'!
0(!
1)!
1*!
0+!
0,!
0-!
1.!
1/!
00!
01!
02!
03!
04!
05!
16!
07!
08!
09!
0:!
0;!
0<!
0=!
1>!
1?!
0@!
0A!
0B!
0C!
0D!
0E!
0F!
1G!
0H!
0I!
0J!
0K!
0L!
0M!
0N!
0O!
0P!
0Q!
0R!
1S!
0T!
0U!
0V!
0W!
0X!
0Y!
0Z!
0[!
0\!
0]!
0^!
0_!
0`!
0a!
$end
#5000
0!
0?
0@
0/
#10000
0%
1!
0t
1?
0u
1@
1/
#15000
0!
0?
0@
0/
#20000
1$
1!
1A
1?
1@
1/
17!
0D
1s
#25000
0!
0?
0@
0/
#30000
0$
1!
0A
1?
1@
1/
07!
1D
0s
1@!
18!
1+!
1z
1v
1N
1J
1G
1E
1A!
17!
1R!
0.!
1D!
0}
06!
0#!
1j
1e
1^
1O
1U
1H
0&!
1`
1\
0S!
0/!
19!
07!
1l
1f
1_
1W
1Y
16!
14!
1m
1g
1k
0f
0`
09!
17!
1p
0l
0g
10!
0q
0m
11!
12!
#35000
0!
0?
0@
0/
#40000
1!
1?
1@
1/
1H!
1E!
15!
13!
0v
1Z
1X
1V
1X!
1N!
1I!
1Z!
1B!
06!
04!
02!
01!
00!
19!
07!
12!
#45000
0!
0?
0@
0/
#50000
1!
1?
1@
1/
08!
05!
1[!
1Y!
1C!
1:!
0B!
16!
1;
1:
17
16
1*
1)
1&
1.
#55000
0!
0?
0@
0/
#60000
1!
1?
1@
1/
#65000
0!
0?
0@
0/
#70000
1!
1?
1@
1/
#75000
0!
0?
0@
0/
#80000
1!
1?
1@
1/
#85000
0!
0?
0@
0/
#90000
1!
1?
1@
1/
#95000
0!
0?
0@
0/
#100000
1!
1?
1@
1/
#105000
0!
0?
0@
0/
#110000
1!
1?
1@
1/
#115000
0!
0?
0@
0/
#120000
1!
1?
1@
1/
#125000
0!
0?
0@
0/
#130000
1!
1?
1@
1/
#135000
0!
0?
0@
0/
#140000
b10001111 "
b11001111 "
b11000111 "
b10000001 #
b10100001 #
b10101001 #
b10101011 #
b10101010 #
1!
0C
1K
1,!
1'!
0)!
0y
1w
1;!
1?
1@
1/
0*!
1<!
#145000
0!
0?
0@
0/
#150000
1$
1!
1A
1?
1@
1/
09!
17!
0D
1s
0[!
0Y!
0C!
0;
0:
07
0*
0)
0&
#155000
0!
0?
0@
0/
#160000
0$
1!
0A
1?
1@
1/
19!
07!
1D
0s
1=!
18!
1-!
0+!
1(!
0z
1x
1v
1L
0E
0:!
0A!
09!
17!
1K!
14!
10!
1]
1[
1T
1S
1R
1`
0\
0U
0O
0H
06
0.
1L!
1c
0^
1d
0_
0]
1o
0j
0d
1_
0`
0c
1^
1q
0p
1l
1`
0o
1j
1d
0_
00!
1m
1p
0l
1i
0e
0`
11!
10!
0q
0m
0p
1o
1l
0k
1f
02!
01!
00!
1m
0l
1g
12!
0m
#165000
0!
0?
0@
0/
#170000
1!
1?
1@
1/
1M!
15!
0v
1h
0V
1V!
0I!
1B!
06!
04!
1`!
19!
07!
#175000
0!
0?
0@
0/
#180000
1!
1?
1@
1/
08!
05!
1a!
1[!
1Y!
1W!
1:!
0B!
16!
1>
1;
1:
19
16
1-
1*
1)
1(
1.
#185000
0!
0?
0@
0/
#190000
1!
1?
1@
1/
#195000
0!
0?
0@
0/
#200000
1!
1?
1@
1/
#205000
0!
0?
0@
0/
#210000
1!
1?
1@
1/
#215000
0!
0?
0@
0/
#220000
1!
1?
1@
1/
#225000
0!
0?
0@
0/
#230000
1!
1?
1@
1/
#235000
0!
0?
0@
0/
#240000
1!
1?
1@
1/
#245000
0!
0?
0@
0/
#250000
1!
1?
1@
1/
#255000
0!
0?
0@
0/
#260000
1!
1?
1@
1/
#265000
0!
0?
0@
0/
#270000
1!
1?
1@
1/
#275000
0!
0?
0@
0/
#280000
b11000011 "
b11000001 "
b11000000 "
b1000000 "
b0 "
1!
0I
0M
0F
0w
0;!
1?
1@
1/
0<!
#285000
0!
0?
0@
0/
#290000
1$
1!
1A
1?
1@
1/
09!
17!
0D
1s
0a!
0[!
0Y!
0W!
0>
0;
0:
09
0-
0*
0)
0(
#295000
0!
0?
0@
0/
#300000
0$
1!
0A
1?
1@
1/
19!
07!
1D
0s
0=!
18!
0x
1v
0N
0J
0G
0:!
1A!
09!
17!
0R!
1}
14!
1#!
0o
0j
0i
1e
0^
0R
0T
0[
06
0.
1S!
1/!
11!
1q
1k
0f
0d
0S
0W
06!
04!
02!
1l
0g
0e
0Y
19!
07!
01!
1m
0k
1f
12!
0l
1g
0m
#305000
0!
0?
0@
0/
#310000
1!
1?
1@
1/
08!
0v
1:!
16!
16
1.
#315000
0!
0?
0@
0/
#320000
1!
1?
1@
1/
#325000
0!
0?
0@
0/
#330000
1!
1?
1@
1/
#335000
0!
0?
0@
0/
#340000
1!
1?
1@
1/
#345000
0!
0?
0@
0/
#350000
1!
1?
1@
1/
#355000
0!
0?
0@
0/
#360000
1!
1?
1@
1/
#365000
0!
0?
0@
0/
#370000
1!
1?
1@
1/
#375000
0!
0?
0@
0/
#380000
1!
1?
1@
1/
#385000
0!
0?
0@
0/
#390000
1!
1?
1@
1/
#395000
0!
0?
0@
0/
#400000
1!
1?
1@
1/
#405000
0!
0?
0@
0/
#410000
1!
1?
1@
1/
#415000
0!
0?
0@
0/
#420000
1!
1?
1@
1/
#425000
0!
0?
0@
0/
#430000
1!
1?
1@
1/
#435000
0!
0?
0@
0/
#440000
b100000 "
b110000 "
b101010 #
b1101010 #
1!
1)!
0>!
1~
1{
1?
1@
1/
1*!
0?!
1!!
#445000
0!
0?
0@
0/
#450000
1$
1!
1A
1?
1@
1/
09!
17!
0D
1s
#455000
0!
0?
0@
0/
#460000
0$
1!
0A
1?
1@
1/
19!
07!
1D
0s
0@!
18!
1+!
1"!
1|
1v
0:!
0A!
09!
17!
1R!
1F!
0#!
1Q!
0K!
0}
06!
06
0.
0S!
1K!
0G!
0/!
0R!
0L!
19!
07!
1L!
16!
14!
1S!
09!
17!
11!
02!
#465000
0!
0?
0@
0/
#470000
1!
1?
1@
1/
1T!
0H!
15!
03!
0v
1r
0Z
0X
0N!
0X!
0S!
12!
1m
0g
1B
01!
1\!
1S!
0D!
0q
#475000
0!
0?
0@
0/
#480000
1!
1?
1@
1/
0E!
13!
0r
1n
0h
0Z!
1I!
1G!
1D!
1B!
06!
04!
11!
0m
1g
0B
0\!
1^!
1q
0`!
19!
07!
01!
02!
0G!
12!
#485000
0!
0?
0@
0/
#490000
1!
1?
1@
1/
08!
05!
1_!
1W!
1U!
1:!
0B!
16!
1=
19
18
16
1,
1(
1'
1.
#495000
0!
0?
0@
0/
#500000
1!
1?
1@
1/
#505000
0!
0?
0@
0/
#510000
1!
1?
1@
1/
#515000
0!
0?
0@
0/
#520000
1!
1?
1@
1/
#525000
0!
0?
0@
0/
#530000
1!
1?
1@
1/
#535000
0!
0?
0@
0/
#540000
1!
1?
1@
1/
#545000
0!
0?
0@
0/
#550000
1!
1?
1@
1/
#555000
0!
0?
0@
0/
#560000
1!
1?
1@
1/
#565000
0!
0?
0@
0/
#570000
1!
1?
1@
1/
#575000
0!
0?
0@
0/
#580000
1!
1?
1@
1/
#585000
0!
0?
0@
0/
#590000
1!
1?
1@
1/
#595000
0!
0?
0@
0/
#600000
1!
1?
1@
1/
#605000
0!
0?
0@
0/
#610000
1!
1?
1@
1/
#615000
0!
0?
0@
0/
#620000
1!
1?
1@
1/
#625000
0!
0?
0@
0/
#630000
1!
1?
1@
1/
#635000
0!
0?
0@
0/
#640000
1!
1?
1@
1/
#645000
0!
0?
0@
0/
#650000
1!
1?
1@
1/
#655000
0!
0?
0@
0/
#660000
b1111010 #
b1111110 #
b1111111 #
b10000 "
b0 "
b11111111 #
1!
0~
0{
1C
1P
1$!
1>!
1?
1@
1/
0!!
1?!
#665000
0!
0?
0@
0/
#670000
1$
1!
1A
1?
1@
1/
09!
17!
0D
1s
0_!
0W!
0U!
0=
09
08
0,
0(
0'
#675000
0!
0?
0@
0/
#680000
0$
1!
0A
1?
1@
1/
19!
07!
1D
0s
1@!
18!
1%!
0"!
0|
1v
1Q
1E
0:!
1A!
09!
17!
1#!
0Q!
1O!
0K!
1}
14!
1l
1\
1`
06
0.
1/!
0L!
11!
1m
06!
04!
02!
19!
07!
01!
12!
#685000
0!
0?
0@
0/
#690000
1!
1?
1@
1/
08!
0v
1:!
16!
16
1.
#695000
0!
0?
0@
0/
#700000
1!
1?
1@
1/
#705000
0!
0?
0@
0/
#710000
1!
1?
1@
1/
#715000
0!
0?
0@
0/
#720000
1!
1?
1@
1/
#725000
0!
0?
0@
0/
#730000
1!
1?
1@
1/
#735000
0!
0?
0@
0/
#740000
1!
1?
1@
1/
#745000
0!
0?
0@
0/
#750000
1!
1?
1@
1/
#755000
0!
0?
0@
0/
#760000
1!
1?
1@
1/
#765000
0!
0?
0@
0/
#770000
1!
1?
1@
1/
#775000
0!
0?
0@
0/
#780000
1!
1?
1@
1/
#785000
0!
0?
0@
0/
#790000
1!
1?
1@
1/
#795000
0!
0?
0@
0/
#800000
1!
1?
1@
1/
#805000
0!
0?
0@
0/
#810000
1!
1?
1@
1/
#815000
0!
0?
0@
0/
#820000
1!
1?
1@
1/
#825000
0!
0?
0@
0/
#830000
1!
1?
1@
1/
#835000
0!
0?
0@
0/
#840000
1!
1?
1@
1/
#845000
0!
0?
0@
0/
#850000
1!
1?
1@
1/
#855000
0!
0?
0@
0/
#860000
1!
1?
1@
1/
#865000
0!
0?
0@
0/
#870000
1!
1?
1@
1/
#875000
0!
0?
0@
0/
#880000
1!
1?
1@
1/
#885000
0!
0?
0@
0/
#890000
1!
1?
1@
1/
#895000
0!
0?
0@
0/
#900000
1!
1?
1@
1/
#905000
0!
0?
0@
0/
#910000
1!
1?
1@
1/
#915000
0!
0?
0@
0/
#920000
1!
1?
1@
1/
#925000
0!
0?
0@
0/
#930000
1!
1?
1@
1/
#935000
0!
0?
0@
0/
#940000
1!
1?
1@
1/
#945000
0!
0?
0@
0/
#950000
1!
1?
1@
1/
#955000
0!
0?
0@
0/
#960000
1!
1?
1@
1/
#965000
0!
0?
0@
0/
#970000
1!
1?
1@
1/
#975000
0!
0?
0@
0/
#980000
1!
1?
1@
1/
#985000
0!
0?
0@
0/
#990000
1!
1?
1@
1/
#995000
0!
0?
0@
0/
