CA_Practical2_400104867/simulation/qsim/HW2.msim.vcd
$comment
	File created using the following command:
		vcd file HW2.msim.vcd -direction
$end
$date
	Sat May 06 02:09:38 2023
$end
$version
	ModelSim Version 10.1d
$end
$timescale
	1ps
$end
$scope module FinalCircuit_vlg_vec_tst $end
$var reg 4 ! X [3:0] $end
$var reg 4 " Y [3:0] $end
$var wire 1 # Exp [3] $end
$var wire 1 $ Exp [2] $end
$var wire 1 % Exp [1] $end
$var wire 1 & Exp [0] $end
$var wire 1 ' Fraction [2] $end
$var wire 1 ( Fraction [1] $end
$var wire 1 ) Fraction [0] $end
$var wire 1 * sampler $end
$scope module i1 $end
$var wire 1 + gnd $end
$var wire 1 , vcc $end
$var wire 1 - unknown $end
$var tri1 1 . devclrn $end
$var tri1 1 / devpor $end
$var tri1 1 0 devoe $end
$var wire 1 1 Exp[3]~output_o $end
$var wire 1 2 Exp[2]~output_o $end
$var wire 1 3 Exp[1]~output_o $end
$var wire 1 4 Exp[0]~output_o $end
$var wire 1 5 Fraction[2]~output_o $end
$var wire 1 6 Fraction[1]~output_o $end
$var wire 1 7 Fraction[0]~output_o $end
$var wire 1 8 X[2]~input_o $end
$var wire 1 9 X[3]~input_o $end
$var wire 1 : inst6|inst~0_combout $end
$var wire 1 ; Y[1]~input_o $end
$var wire 1 < Y[2]~input_o $end
$var wire 1 = X[1]~input_o $end
$var wire 1 > Y[0]~input_o $end
$var wire 1 ? inst4|inst14~combout $end
$var wire 1 @ Y[3]~input_o $end
$var wire 1 A inst4|inst22~combout $end
$var wire 1 B inst2|inst9|inst4|inst4~0_combout $end
$var wire 1 C inst2|inst9|inst2|inst4~0_combout $end
$var wire 1 D inst4|inst10~0_combout $end
$var wire 1 E inst4|inst21~combout $end
$var wire 1 F inst4|inst20~combout $end
$var wire 1 G X[0]~input_o $end
$var wire 1 H inst|inst3|inst|inst7|6~0_combout $end
$var wire 1 I inst|inst3|inst|inst6|6~0_combout $end
$var wire 1 J inst|inst3|inst|inst8|6~0_combout $end
$var wire 1 K inst4|inst [3] $end
$var wire 1 L inst4|inst [2] $end
$var wire 1 M inst4|inst [1] $end
$var wire 1 N inst4|inst [0] $end
$var wire 1 O inst4|inst4 [3] $end
$var wire 1 P inst4|inst4 [2] $end
$var wire 1 Q inst4|inst4 [1] $end
$var wire 1 R inst4|inst4 [0] $end
$upscope $end
$upscope $end
$enddefinitions $end
#0
$dumpvars
b101 !
b0 "
0&
1%
0$
0#
0)
1(
0'
x*
0+
1,
x-
1.
1/
10
01
02
13
04
05
16
07
18
09
1:
0;
0<
0=
0>
0?
0@
0A
1B
0C
0D
0E
1F
1G
0H
1I
0J
0N
zM
zL
zK
0R
zQ
zP
zO
$end
#80000
b1000 "
1@
0*
1A
11
1#
#160000
b1 !
b0 "
0@
08
1*
0B
0:
0A
0I
01
06
0#
0(
0F
03
0%
#250000
b10 "
1;
0*
1F
13
1%
#340000
b11 !
b0 "
0;
1=
1*
1C
1B
0F
1H
1R
03
15
14
0%
1'
1&
#450000
b1000 "
b1010 "
1;
1@
0*
1F
1A
13
11
1%
1#
#560000
b1011 !
b1010 !
b1110 !
b1100 !
b10 "
b0 "
0;
0@
0G
0=
18
19
1*
0B
1:
0F
0A
03
01
0%
0#
1F
13
1%
#620000
b1 "
1>
0*
1D
1N
0R
0F
04
03
0&
0%
1E
12
1$
#680000
b1101 !
b1111 !
b0 "
0>
1G
1=
1*
0D
0N
1R
1F
1J
1I
14
13
17
16
1&
1%
1)
1(
0E
02
0$
#820000
b111 !
b101 !
0=
09
0*
0C
1B
0H
0R
0J
05
04
07
0'
0&
0)
